…
```r
artist_count <-top_hits %>% 
  group_by(artist_name) %>% 
  summarise(track_count = sum(n())) %>% 
  arrange(desc(track_count))
print(artist_count)
```

```
## # A tibble: 468 x 2
##    artist_name        track_count
##    <chr>                    <int>
##  1 Rihanna                      7
##  2 Elton John                   6
##  3 Katy Perry                   6
##  4 Mariah Carey                 5
##  5 The Rolling Stones           5
##  6 Usher                        5
##  7 Donna Summer                 4
##  8 The Beatles                  4
##  9 Wings                        4
## 10 Bee Gees                     3
## # … with 458 more rows
```
…
```r
artist_location <- right_join(artist_count, artists_states)
```

```
## Joining, by = "artist_name"
```

```r
print(artist_location)
```

```
## # A tibble: 29 x 3
##    artist_name   track_count state        
##    <chr>               <int> <chr>        
##  1 Katy Perry              6 California   
##  2 Mariah Carey            5 New York     
##  3 Usher                   5 Texas        
##  4 Donna Summer            4 Massachusetts
##  5 Elvis Presley           3 Mississippi  
##  6 Eminem                  3 Missouri     
##  7 Janet Jackson           3 Indiana      
##  8 Madonna                 3 Michigan     
##  9 Prince                  3 Minnesota    
## 10 Stevie Wonder           3 Michigan     
## # … with 19 more rows
```
…
