…
```
## Joining, by = "word"
```

```r
print(lyrics_sentiment)
```

```
## # A tibble: 111 x 5
## # Groups:   Artist [79]
##    Artist                       index negative positive net_sentiment
##    <chr>                        <dbl>    <int>    <int>         <int>
##  1 adele                            1       12        8            -4
##  2 alessia cara                     1       10       10             0
##  3 andy grammer                     1        5       17            12
##  4 ariana grande                    1        5        9             4
##  5 ariana grande and the weeknd     1       NA       40            NA
##  6 beyonce                          1       25       12           -13
##  7 beyonce                          2        3        4             1
##  8 big sean featuring drake         1       13       23            10
##  9 big sean featuring drake         2       11       13             2
## 10 big sean featuring e40           1       27        2           -25
## # … with 101 more rows
```
…
